{
    "remote_commands": {
        "AC": [
            {
                "POWER": [
                    "ON",
                    "OFF"
                ],
                "MODE": [
                    "AUTO",
                    "LOW",
                    "MEDIUM",
                    "HIGH",
                    "DRY"
                ],
                "TEMPERATURE": [
                    17,
                    30
                ]
            }
        ]
    }
}